{"_id":{"$oid":"5a89d16d2cce2c24d051df28"},"Timestamp":{"_csharpnull":true},"Name":"#hello","Posts":[{"_id":{"$oid":"000000000000000000000000"},"PostId":{"$binary":"x8Bvxr0n1kKHo4BQZ16C5w==","$type":"03"},"OwnerId":{"$oid":"5a89d1482cce2c24d051df27"},"OwnerUsername":"peraperic","Timestamp":{"$date":"2018-02-18T19:18:05.204Z"},"Body":"Zdravo svima, ja sam Pera Peric!","Comments":[{"_id":{"$oid":"000000000000000000000000"},"CommId":{"$binary":"KtaH7z1DV0aFu6BdgmuEjQ==","$type":"03"},"OwnerId":{"$oid":"5a89d1a62cce2c24d051df2c"},"OwnerUsername":"mikamikic","Timestamp":{"_csharpnull":true},"Text":"Dobrodosao Pero :)"},{"_id":{"$oid":"000000000000000000000000"},"CommId":{"$binary":"kaCahZYvl0WPHnD2oYe7eQ==","$type":"03"},"OwnerId":{"$oid":"5a89d2102cce2c24d051df2f"},"OwnerUsername":"lazalazic","Timestamp":{"_csharpnull":true},"Text":"Zdravo Pero, zdravo Miko!"}],"Likes":[[{"$oid":"5a89d1a62cce2c24d051df2c"},"mikamikic"]],"Hashtags":["#hello","#2018","#welcome"]}]}
{"_id":{"$oid":"5a89d16d2cce2c24d051df29"},"Timestamp":{"_csharpnull":true},"Name":"#2018","Posts":[{"_id":{"$oid":"000000000000000000000000"},"PostId":{"$binary":"x8Bvxr0n1kKHo4BQZ16C5w==","$type":"03"},"OwnerId":{"$oid":"5a89d1482cce2c24d051df27"},"OwnerUsername":"peraperic","Timestamp":{"$date":"2018-02-18T19:18:05.204Z"},"Body":"Zdravo svima, ja sam Pera Peric!","Comments":[{"_id":{"$oid":"000000000000000000000000"},"CommId":{"$binary":"KtaH7z1DV0aFu6BdgmuEjQ==","$type":"03"},"OwnerId":{"$oid":"5a89d1a62cce2c24d051df2c"},"OwnerUsername":"mikamikic","Timestamp":{"_csharpnull":true},"Text":"Dobrodosao Pero :)"},{"_id":{"$oid":"000000000000000000000000"},"CommId":{"$binary":"kaCahZYvl0WPHnD2oYe7eQ==","$type":"03"},"OwnerId":{"$oid":"5a89d2102cce2c24d051df2f"},"OwnerUsername":"lazalazic","Timestamp":{"_csharpnull":true},"Text":"Zdravo Pero, zdravo Miko!"}],"Likes":[[{"$oid":"5a89d1a62cce2c24d051df2c"},"mikamikic"]],"Hashtags":["#hello","#2018","#welcome"]},{"_id":{"$oid":"000000000000000000000000"},"PostId":{"$binary":"BCRdmY184kW5McoHHw9/jg==","$type":"03"},"OwnerId":{"$oid":"5a89d1482cce2c24d051df27"},"OwnerUsername":"peraperic","Timestamp":{"$date":"2018-02-18T19:18:27.057Z"},"Body":"Zasto nikoga nema?","Comments":[{"_id":{"$oid":"000000000000000000000000"},"CommId":{"$binary":"7f3VcKECzk+KOPHEo+tNyg==","$type":"03"},"OwnerId":{"$oid":"5a89d1a62cce2c24d051df2c"},"OwnerUsername":"mikamikic","Timestamp":{"_csharpnull":true},"Text":"Zdravo Pero, ja sam tu!"},{"_id":{"$oid":"000000000000000000000000"},"CommId":{"$binary":"bLi8U7+kmk29Oi6MOZpvDg==","$type":"03"},"OwnerId":{"$oid":"5a89d2102cce2c24d051df2f"},"OwnerUsername":"lazalazic","Timestamp":{"_csharpnull":true},"Text":"Evo i mene, da vam pravim drustvo"}],"Likes":[[{"$oid":"5a89d1a62cce2c24d051df2c"},"mikamikic"],[{"$oid":"5a89d2102cce2c24d051df2f"},"lazalazic"],[{"$oid":"5a89d1a62cce2c24d051df2c"},"mikamikic"]],"Hashtags":["#alone","#2018"]},{"_id":{"$oid":"000000000000000000000000"},"PostId":{"$binary":"8vzfcBtdHEqECKcISAW3LQ==","$type":"03"},"OwnerId":{"$oid":"5a89d1a62cce2c24d051df2c"},"OwnerUsername":"mikamikic","Timestamp":{"$date":"2018-02-18T19:23:32.851Z"},"Body":"Gde cemo na more ovog leta? :D","Comments":[],"Likes":[[{"$oid":"5a89d1a62cce2c24d051df2c"},"mikamikic"]],"Hashtags":["#more","#2018"]}]}
{"_id":{"$oid":"5a89d16d2cce2c24d051df2a"},"Timestamp":{"_csharpnull":true},"Name":"#welcome","Posts":[{"_id":{"$oid":"000000000000000000000000"},"PostId":{"$binary":"x8Bvxr0n1kKHo4BQZ16C5w==","$type":"03"},"OwnerId":{"$oid":"5a89d1482cce2c24d051df27"},"OwnerUsername":"peraperic","Timestamp":{"$date":"2018-02-18T19:18:05.204Z"},"Body":"Zdravo svima, ja sam Pera Peric!","Comments":[{"_id":{"$oid":"000000000000000000000000"},"CommId":{"$binary":"KtaH7z1DV0aFu6BdgmuEjQ==","$type":"03"},"OwnerId":{"$oid":"5a89d1a62cce2c24d051df2c"},"OwnerUsername":"mikamikic","Timestamp":{"_csharpnull":true},"Text":"Dobrodosao Pero :)"},{"_id":{"$oid":"000000000000000000000000"},"CommId":{"$binary":"kaCahZYvl0WPHnD2oYe7eQ==","$type":"03"},"OwnerId":{"$oid":"5a89d2102cce2c24d051df2f"},"OwnerUsername":"lazalazic","Timestamp":{"_csharpnull":true},"Text":"Zdravo Pero, zdravo Miko!"}],"Likes":[[{"$oid":"5a89d1a62cce2c24d051df2c"},"mikamikic"]],"Hashtags":["#hello","#2018","#welcome"]}]}
{"_id":{"$oid":"5a89d1832cce2c24d051df2b"},"Timestamp":{"_csharpnull":true},"Name":"#alone","Posts":[{"_id":{"$oid":"000000000000000000000000"},"PostId":{"$binary":"BCRdmY184kW5McoHHw9/jg==","$type":"03"},"OwnerId":{"$oid":"5a89d1482cce2c24d051df27"},"OwnerUsername":"peraperic","Timestamp":{"$date":"2018-02-18T19:18:27.057Z"},"Body":"Zasto nikoga nema?","Comments":[{"_id":{"$oid":"000000000000000000000000"},"CommId":{"$binary":"7f3VcKECzk+KOPHEo+tNyg==","$type":"03"},"OwnerId":{"$oid":"5a89d1a62cce2c24d051df2c"},"OwnerUsername":"mikamikic","Timestamp":{"_csharpnull":true},"Text":"Zdravo Pero, ja sam tu!"},{"_id":{"$oid":"000000000000000000000000"},"CommId":{"$binary":"bLi8U7+kmk29Oi6MOZpvDg==","$type":"03"},"OwnerId":{"$oid":"5a89d2102cce2c24d051df2f"},"OwnerUsername":"lazalazic","Timestamp":{"_csharpnull":true},"Text":"Evo i mene, da vam pravim drustvo"}],"Likes":[[{"$oid":"5a89d1a62cce2c24d051df2c"},"mikamikic"],[{"$oid":"5a89d2102cce2c24d051df2f"},"lazalazic"],[{"$oid":"5a89d1a62cce2c24d051df2c"},"mikamikic"]],"Hashtags":["#alone","#2018"]}]}
{"_id":{"$oid":"5a89d1f22cce2c24d051df2d"},"Timestamp":{"_csharpnull":true},"Name":"#vreme","Posts":[{"_id":{"$oid":"000000000000000000000000"},"PostId":{"$binary":"mHU/FWux5kOMrmYH1kSpag==","$type":"03"},"OwnerId":{"$oid":"5a89d1a62cce2c24d051df2c"},"OwnerUsername":"mikamikic","Timestamp":{"$date":"2018-02-18T19:20:18.140Z"},"Body":"Kakvo je vreme danas u vasem gradu? U Nisu pada kisa.","Comments":[{"_id":{"$oid":"000000000000000000000000"},"CommId":{"$binary":"nE61loxdgUWOSYJ/FRgZ4A==","$type":"03"},"OwnerId":{"$oid":"5a89d2102cce2c24d051df2f"},"OwnerUsername":"lazalazic","Timestamp":{"_csharpnull":true},"Text":"Kod mene je sneg. Kako li je na moru sada?"},{"_id":{"$oid":"000000000000000000000000"},"CommId":{"$binary":"1s2idfuZgEqTbRYKaihB8g==","$type":"03"},"OwnerId":{"$oid":"5a89d2102cce2c24d051df2f"},"OwnerUsername":"lazalazic","Timestamp":{"_csharpnull":true},"Text":"P.S. Ja obozavam kisu!"},{"_id":{"$oid":"000000000000000000000000"},"CommId":{"$binary":"8yylpIlcN029FvkbM2rS/Q==","$type":"03"},"OwnerId":{"$oid":"5a89d1a62cce2c24d051df2c"},"OwnerUsername":"mikamikic","Timestamp":{"_csharpnull":true},"Text":"Blago tebi, ja ne volim kisu. Ja volim sunce i more :D"}],"Likes":[],"Hashtags":["#vreme","#kisa"]}]}
{"_id":{"$oid":"5a89d1f22cce2c24d051df2e"},"Timestamp":{"_csharpnull":true},"Name":"#kisa","Posts":[{"_id":{"$oid":"000000000000000000000000"},"PostId":{"$binary":"mHU/FWux5kOMrmYH1kSpag==","$type":"03"},"OwnerId":{"$oid":"5a89d1a62cce2c24d051df2c"},"OwnerUsername":"mikamikic","Timestamp":{"$date":"2018-02-18T19:20:18.140Z"},"Body":"Kakvo je vreme danas u vasem gradu? U Nisu pada kisa.","Comments":[{"_id":{"$oid":"000000000000000000000000"},"CommId":{"$binary":"nE61loxdgUWOSYJ/FRgZ4A==","$type":"03"},"OwnerId":{"$oid":"5a89d2102cce2c24d051df2f"},"OwnerUsername":"lazalazic","Timestamp":{"_csharpnull":true},"Text":"Kod mene je sneg. Kako li je na moru sada?"},{"_id":{"$oid":"000000000000000000000000"},"CommId":{"$binary":"1s2idfuZgEqTbRYKaihB8g==","$type":"03"},"OwnerId":{"$oid":"5a89d2102cce2c24d051df2f"},"OwnerUsername":"lazalazic","Timestamp":{"_csharpnull":true},"Text":"P.S. Ja obozavam kisu!"},{"_id":{"$oid":"000000000000000000000000"},"CommId":{"$binary":"8yylpIlcN029FvkbM2rS/Q==","$type":"03"},"OwnerId":{"$oid":"5a89d1a62cce2c24d051df2c"},"OwnerUsername":"mikamikic","Timestamp":{"_csharpnull":true},"Text":"Blago tebi, ja ne volim kisu. Ja volim sunce i more :D"}],"Likes":[],"Hashtags":["#vreme","#kisa"]},{"_id":{"$oid":"000000000000000000000000"},"PostId":{"$binary":"OUP+YJ0LOEeo5tHwRUtkNw==","$type":"03"},"OwnerId":{"$oid":"5a89d2102cce2c24d051df2f"},"OwnerUsername":"lazalazic","Timestamp":{"$date":"2018-02-18T19:22:18.292Z"},"Body":"Ja obozavam kisu i sneg!","Comments":[],"Likes":[],"Hashtags":["#kisa","#sneg"]}]}
{"_id":{"$oid":"5a89d26a2cce2c24d051df30"},"Timestamp":{"_csharpnull":true},"Name":"#sneg","Posts":[{"_id":{"$oid":"000000000000000000000000"},"PostId":{"$binary":"OUP+YJ0LOEeo5tHwRUtkNw==","$type":"03"},"OwnerId":{"$oid":"5a89d2102cce2c24d051df2f"},"OwnerUsername":"lazalazic","Timestamp":{"$date":"2018-02-18T19:22:18.292Z"},"Body":"Ja obozavam kisu i sneg!","Comments":[],"Likes":[],"Hashtags":["#kisa","#sneg"]}]}
{"_id":{"$oid":"5a89d2b42cce2c24d051df31"},"Timestamp":{"_csharpnull":true},"Name":"#more","Posts":[{"_id":{"$oid":"000000000000000000000000"},"PostId":{"$binary":"8vzfcBtdHEqECKcISAW3LQ==","$type":"03"},"OwnerId":{"$oid":"5a89d1a62cce2c24d051df2c"},"OwnerUsername":"mikamikic","Timestamp":{"$date":"2018-02-18T19:23:32.851Z"},"Body":"Gde cemo na more ovog leta? :D","Comments":[],"Likes":[[{"$oid":"5a89d1a62cce2c24d051df2c"},"mikamikic"]],"Hashtags":["#more","#2018"]}]}
